Tabulation Concepts • rtables
…
df <- tibble(
  x = rnorm(100),
  c1 = factor(sample(c("A", "B", "C"), 100, replace = TRUE), levels = c("A", "B", "C")),
  r1 = factor(sample(c("U", "V", "W"), 100, replace = TRUE), levels = c("U", "V", "W"))
) %>%
  mutate(
    c2 = add_subgroup(c1),
    r2 = add_subgroup(r1),
    y = as.numeric(2 * as.numeric(c1) - 3 * as.numeric(r1))
  ) %>%
    select(c1, c2, r1, r2, x, y)

df

# # A tibble: 100 × 6
#    c1    c2    r1    r2         x     y
#    <fct> <chr> <fct> <chr>  <dbl> <dbl>
#  1 B     b2    U     u3    -0.626     1
#  2 A     a3    V     v2     0.184    -4
#  3 B     b1    V     v2    -0.836    -2
#  4 B     b3    V     v2     1.60     -2
#  5 B     b1    U     u1     0.330     1
#  6 C     c1    U     u3    -0.820     3
#  7 A     a3    U     u3     0.487    -1
#  8 B     b1    U     u3     0.738     1
#  9 C     c3    V     v2     0.576     0
# 10 C     c3    U     u2    -0.305     3
# # ℹ 90 more rows
…
